// TMW2 Script

// (Random) Treasure Chest
//  Authored by Jesusalva
// Regenerates every 6 hours

011-1,0,0,0	duplicate(#chest_00710)	#chest_01110	NPC_CHEST
011-1,0,0,0	duplicate(#chest_00710)	#chest_01111	NPC_CHEST

