// This file is generated automatically. All manually added changes will be removed when running the Converter.
// Map 015-4: Woodland Mines warps
015-4,50,39,0	warp	#015-4_50_39	0,0,015-1,90,50
015-4,76,18,0	warp	#015-4_76_18	0,0,015-1,177,55
