// This file is generated automatically. All manually added changes will be removed when running the Converter.
// Map 017-10: LoF Townhall warps
017-10,36,79,0	warp	#017-10_36_79	0,0,017-1,171,21
017-10,56,79,0	warp	#017-10_56_79	0,0,017-1,180,21
017-10,60,79,0	warp	#017-10_60_79	0,0,017-1,182,21
017-10,80,79,0	warp	#017-10_80_79	0,0,017-1,190,21
