// This file is generated automatically. All manually added changes will be removed when running the Converter.
// Map 025-2-4: Mana Tree Cave warps
025-2-4,44,98,0	warp	#025-2-4_44_98	0,0,025-2-2,42,45
