// This file is generated automatically. All manually added changes will be removed when running the Converter.
// Map 021-2: Snow Cave warps
021-2,57,49,0	warp	#021-2_57_49	1,0,021-3,70,25
021-2,80,103,0	warp	#021-2_80_103	0,0,021-1,155,196
