// This file is generated automatically. All manually added changes will be removed when running the Converter.
// Map 017-6: LoF Alchemy Shop warps
017-6,30,44,0	warp	#017-6_30_44	0,1,017-1,38,139
017-6,30,32,0	warp	#017-6_30_32	0,1,017-1,38,131
017-6,30,53,0	warp	#017-6_30_53	0,1,017-1,38,154
