// Map 003-1: Tulimshar
// This file is generated automatically. All manually added changes will be removed when running the Converter.
"npc/003-1/_mobs.txt",
"npc/003-1/_warps.txt",
"npc/003-1/aahna.txt",
"npc/003-1/aidan.txt",
"npc/003-1/ched.txt",
"npc/003-1/constableperry.txt",
"npc/003-1/eomie.txt",
"npc/003-1/eugene.txt",
"npc/003-1/events.txt",
"npc/003-1/gladys.txt",
"npc/003-1/hasan.txt",
"npc/003-1/inac.txt",
"npc/003-1/inar.txt",
"npc/003-1/ishi.txt",
"npc/003-1/itka.txt",
"npc/003-1/jakod.txt",
"npc/003-1/jerican.txt",
"npc/003-1/lieutenantdausen.txt",
"npc/003-1/magic.txt",
"npc/003-1/mahoud.txt",
"npc/003-1/malivox.txt",
"npc/003-1/mapflags.txt",
"npc/003-1/mariusthebard.txt",
"npc/003-1/michel.txt",
"npc/003-1/neko.txt",
"npc/003-1/ninathetraveler.txt",
"npc/003-1/oldwell.txt",
"npc/003-1/quirino.txt",
"npc/003-1/sailors.txt",
"npc/003-1/sarah.txt",
"npc/003-1/sewer.txt",
"npc/003-1/ship.txt",
"npc/003-1/shop.txt",
"npc/003-1/silvia.txt",
"npc/003-1/soul-menhir.txt",
"npc/003-1/swezanne.txt",
"npc/003-1/taree.txt",
"npc/003-1/tinris.txt",
"npc/003-1/town.txt",
"npc/003-1/wateranimation.txt",
"npc/003-1/well.txt",
