// Guild LvUp experience value table
// Exp needed for level  5:     5.500.000 Exp
// Exp needed for level 10:    38.500.000 Exp
// Exp needed for level 25:   552.500.000 Exp
// Exp needed for level 50: 4.292.500.000 Exp
100000
400000
900000
1600000
2500000
3600000
4900000
6400000
8100000
10000000
12100000
14400000
16900000
19600000
22500000
25600000
28900000
32400000
36100000
40000000
44100000
48400000
52900000
57600000
62500000
67600000
72900000
78400000
84100000
90000000
96100000
102400000
108900000
115600000
122500000
129600000
136900000
144400000
152100000
160000000
168100000
176400000
184900000
193600000
202500000
211600000
220900000
230400000
240100000
250000000
