// This file is generated automatically. All manually added changes will be removed when running the Converter.
// Map 004-1: Tulimshar warps
004-1,63,56,0	warp	#004-1_63_56	4,0,003-1,60,156
004-1,92,114,0	warp	#004-1_92_114	0,0,007-1,90,51
004-1,33,109,0	warp	#004-1_33_109	0,0,007-1,56,36
004-1,120,95,0	warp	#004-1_120_95	0,2,004-2,21,48
004-1,49,20,0	warp	#004-1_49_20	0,0,003-1-1,29,61
