// This file is generated automatically. All manually added changes will be removed when running the Converter.
// Map 006-2-1: Piou Houses mobs
006-2-1,28,29,1,1	monster	Piousse	1003,4,30000,30000
006-2-1,76,69,2,2	monster	Piou	1002,6,30000,30000
006-2-1,79,27,7,3	monster	Piou	1002,4,30000,30000
006-2-1,37,77,5,3	monster	Piou	1002,3,30000,30000
006-2-1,37,69,5,3	monster	Piousse	1003,4,30000,30000
