// This file is generated automatically. All manually added changes will be removed when running the Converter.
// Map 006-2-1: Piou Houses warps
006-2-1,24,23,0	warp	#006-2-1_24_23	0,0,006-2,68,100
006-2-1,38,65,0	warp	#006-2-1_38_65	0,0,006-2,87,96
006-2-1,79,23,0	warp	#006-2-1_79_23	0,0,006-2,92,96
006-2-1,83,65,0	warp	#006-2-1_83_65	0,0,006-2,87,101
